{
  "navigationVariable1" : {
    "_id" : "wm-navigationVariable1-wm.NavigationVariable-1476728980648",
    "name" : "navigationVariable1",
    "owner" : "Page",
    "category" : "wm.NavigationVariable",
    "dataBinding" : [ {
      "target" : "pageName",
      "value" : "Profile",
      "type" : "list"
    } ],
    "operation" : "gotoPage",
    "dataSet" : [ ],
    "pageTransitions" : "slide"
  },
  "navigationVariable2" : {
    "_id" : "wm-navigationVariable2-wm.NavigationVariable-1476729102577",
    "name" : "navigationVariable2",
    "owner" : "Page",
    "category" : "wm.NavigationVariable",
    "dataBinding" : [ {
      "target" : "pageName",
      "value" : "Main",
      "type" : "list"
    } ],
    "operation" : "gotoPage",
    "dataSet" : [ ],
    "pageTransitions" : "slide"
  }
}