{
  "endpointAddress" : "http://maps.googleapis.com/maps/api/geocode/json",
  "method" : "GET",
  "contentType" : "text/xml",
  "requestBody" : "",
  "authType" : "NONE",
  "headers" : { },
  "queryParams" : {
    "sensor" : "true",
    "latlng" : "44.4647452,7.3553838"
  },
  "sampleRestResponse" : {
    "responseBody" : "{\"results\":[{\"address_components\":[{\"long_name\":\"34\",\"short_name\":\"34\",\"types\":[\"street_number\"]},{\"long_name\":\"Via Pasubio\",\"short_name\":\"Via Pasubio\",\"types\":[\"route\"]},{\"long_name\":\"Dronero\",\"short_name\":\"Dronero\",\"types\":[\"locality\",\"political\"]},{\"long_name\":\"Dronero\",\"short_name\":\"Dronero\",\"types\":[\"administrative_area_level_3\",\"political\"]},{\"long_name\":\"Provincia di Cuneo\",\"short_name\":\"CN\",\"types\":[\"administrative_area_level_2\",\"political\"]},{\"long_name\":\"Piemonte\",\"short_name\":\"Piemonte\",\"types\":[\"administrative_area_level_1\",\"political\"]},{\"long_name\":\"Italy\",\"short_name\":\"IT\",\"types\":[\"country\",\"political\"]},{\"long_name\":\"12025\",\"short_name\":\"12025\",\"types\":[\"postal_code\"]}],\"formatted_address\":\"Via Pasubio, 34, 12025 Dronero CN, Italy\",\"geometry\":{\"location\":{\"lat\":44.46481,\"lng\":7.355569999999999},\"location_type\":\"ROOFTOP\",\"viewport\":{\"northeast\":{\"lat\":44.4661589802915,\"lng\":7.356918980291502},\"southwest\":{\"lat\":44.4634610197085,\"lng\":7.354221019708497}}},\"place_id\":\"ChIJ9X2GwQE-zRIRMqiTuJO0rbQ\",\"types\":[\"street_address\"]},{\"address_components\":[{\"long_name\":\"Dronero\",\"short_name\":\"Dronero\",\"types\":[\"locality\",\"political\"]},{\"long_name\":\"Dronero\",\"short_name\":\"Dronero\",\"types\":[\"administrative_area_level_3\",\"political\"]},{\"long_name\":\"Provincia di Cuneo\",\"short_name\":\"CN\",\"types\":[\"administrative_area_level_2\",\"political\"]},{\"long_name\":\"Piemonte\",\"short_name\":\"Piemonte\",\"types\":[\"administrative_area_level_1\",\"political\"]},{\"long_name\":\"Italy\",\"short_name\":\"IT\",\"types\":[\"country\",\"political\"]},{\"long_name\":\"12025\",\"short_name\":\"12025\",\"types\":[\"postal_code\"]}],\"formatted_address\":\"12025 Dronero CN, Italy\",\"geometry\":{\"bounds\":{\"northeast\":{\"lat\":44.4725465,\"lng\":7.380186599999999},\"southwest\":{\"lat\":44.4564415,\"lng\":7.3389068}},\"location\":{\"lat\":44.4658423,\"lng\":7.3656691},\"location_type\":\"APPROXIMATE\",\"viewport\":{\"northeast\":{\"lat\":44.4725465,\"lng\":7.380186599999999},\"southwest\":{\"lat\":44.4564415,\"lng\":7.3389068}}},\"place_id\":\"ChIJOxWz-gI-zRIRkPwCPK3Cxnk\",\"types\":[\"locality\",\"political\"]},{\"address_components\":[{\"long_name\":\"Dronero\",\"short_name\":\"Dronero\",\"types\":[\"administrative_area_level_3\",\"political\"]},{\"long_name\":\"Province of Cuneo\",\"short_name\":\"CN\",\"types\":[\"administrative_area_level_2\",\"political\"]},{\"long_name\":\"Piedmont\",\"short_name\":\"Piedmont\",\"types\":[\"administrative_area_level_1\",\"political\"]},{\"long_name\":\"Italy\",\"short_name\":\"IT\",\"types\":[\"country\",\"political\"]},{\"long_name\":\"12025\",\"short_name\":\"12025\",\"types\":[\"postal_code\"]}],\"formatted_address\":\"12025 Dronero, Province of Cuneo, Italy\",\"geometry\":{\"bounds\":{\"northeast\":{\"lat\":44.4861442,\"lng\":7.445563599999999},\"southwest\":{\"lat\":44.4245393,\"lng\":7.229214100000001}},\"location\":{\"lat\":44.4394719,\"lng\":7.297661700000001},\"location_type\":\"APPROXIMATE\",\"viewport\":{\"northeast\":{\"lat\":44.4861442,\"lng\":7.445563599999999},\"southwest\":{\"lat\":44.4245393,\"lng\":7.229214100000001}}},\"place_id\":\"ChIJs9s7eBoWzRIRkKc8R33mBQQ\",\"types\":[\"administrative_area_level_3\",\"political\"]},{\"address_components\":[{\"long_name\":\"12025\",\"short_name\":\"12025\",\"types\":[\"postal_code\"]},{\"long_name\":\"Province of Cuneo\",\"short_name\":\"CN\",\"types\":[\"administrative_area_level_2\",\"political\"]},{\"long_name\":\"Piedmont\",\"short_name\":\"Piedmont\",\"types\":[\"administrative_area_level_1\",\"political\"]},{\"long_name\":\"Italy\",\"short_name\":\"IT\",\"types\":[\"country\",\"political\"]}],\"formatted_address\":\"12025 Province of Cuneo, Italy\",\"geometry\":{\"bounds\":{\"northeast\":{\"lat\":44.486172,\"lng\":7.4455469},\"southwest\":{\"lat\":44.417001,\"lng\":7.229196}},\"location\":{\"lat\":44.4540825,\"lng\":7.362459800000001},\"location_type\":\"APPROXIMATE\",\"viewport\":{\"northeast\":{\"lat\":44.486172,\"lng\":7.4455469},\"southwest\":{\"lat\":44.417001,\"lng\":7.229196}}},\"place_id\":\"ChIJcSTCDxEWzRIR4DK3k4DmBRw\",\"types\":[\"postal_code\"]},{\"address_components\":[{\"long_name\":\"Province of Cuneo\",\"short_name\":\"CN\",\"types\":[\"administrative_area_level_2\",\"political\"]},{\"long_name\":\"Piedmont\",\"short_name\":\"Piedmont\",\"types\":[\"administrative_area_level_1\",\"political\"]},{\"long_name\":\"Italy\",\"short_name\":\"IT\",\"types\":[\"country\",\"political\"]}],\"formatted_address\":\"Province of Cuneo, Italy\",\"geometry\":{\"bounds\":{\"northeast\":{\"lat\":44.85659099999999,\"lng\":8.2687425},\"southwest\":{\"lat\":44.0600898,\"lng\":6.8534304}},\"location\":{\"lat\":44.5970314,\"lng\":7.6114217},\"location_type\":\"APPROXIMATE\",\"viewport\":{\"northeast\":{\"lat\":44.85659099999999,\"lng\":8.2687425},\"southwest\":{\"lat\":44.0600898,\"lng\":6.8534304}}},\"place_id\":\"ChIJedLPEntCzRIRoH08R33mBQM\",\"types\":[\"administrative_area_level_2\",\"political\"]},{\"address_components\":[{\"long_name\":\"Piedmont\",\"short_name\":\"Piedmont\",\"types\":[\"administrative_area_level_1\",\"political\"]},{\"long_name\":\"Italy\",\"short_name\":\"IT\",\"types\":[\"country\",\"political\"]}],\"formatted_address\":\"Piedmont, Italy\",\"geometry\":{\"bounds\":{\"northeast\":{\"lat\":46.4644351,\"lng\":9.2142641},\"southwest\":{\"lat\":44.0600898,\"lng\":6.6266305}},\"location\":{\"lat\":45.0522366,\"lng\":7.5153885},\"location_type\":\"APPROXIMATE\",\"viewport\":{\"northeast\":{\"lat\":46.4644351,\"lng\":9.2142641},\"southwest\":{\"lat\":44.0600898,\"lng\":6.6266305}}},\"place_id\":\"ChIJZ7GdATt0h0cR_zsS8u24x7w\",\"types\":[\"administrative_area_level_1\",\"political\"]},{\"address_components\":[{\"long_name\":\"Italy\",\"short_name\":\"IT\",\"types\":[\"country\",\"political\"]}],\"formatted_address\":\"Italy\",\"geometry\":{\"bounds\":{\"northeast\":{\"lat\":47.0919999,\"lng\":18.5205014},\"southwest\":{\"lat\":35.4930164,\"lng\":6.6267201}},\"location\":{\"lat\":41.87194,\"lng\":12.56738},\"location_type\":\"APPROXIMATE\",\"viewport\":{\"northeast\":{\"lat\":47.0919999,\"lng\":18.5205014},\"southwest\":{\"lat\":35.4931087,\"lng\":6.6267201}}},\"place_id\":\"ChIJA9KNRIL-1BIRb15jJFz1LOI\",\"types\":[\"country\",\"political\"]}],\"status\":\"OK\"}",
    "convertedResponse" : null,
    "statusCode" : 200,
    "responseHeaders" : {
      "X-Frame-Options" : [ "SAMEORIGIN" ],
      "Access-Control-Allow-Origin" : [ "*" ],
      "Vary" : [ "Accept-Language" ],
      "Date" : [ "Tue, 18 Oct 2016 14:22:11 GMT" ],
      "X-XSS-Protection" : [ "1; mode=block" ],
      "Expires" : [ "Wed, 19 Oct 2016 14:22:11 GMT" ],
      "Content-Type" : [ "application/json; charset=UTF-8" ],
      "Server" : [ "mafe" ],
      "Cache-Control" : [ "public, max-age=86400" ]
    },
    "contentType" : "application/json",
    "cookies" : [ ]
  },
  "redirectEnabled" : true
}