{
  "sv_getAddressForLatLng" : {
    "_id" : "wm-sv_getAddressForLatLng-wm.ServiceVariable-1476800738903",
    "name" : "sv_getAddressForLatLng",
    "owner" : "Page",
    "category" : "wm.ServiceVariable",
    "dataBinding" : [ {
      "target" : "sensor",
      "value" : "true",
      "type" : "string"
    }, {
      "target" : "latlng",
      "value" : "bind:Variables.sv_getLocationForDevice.dataSet.latitude + ',' + Variables.sv_getLocationForDevice.dataSet.longitude",
      "type" : "string"
    } ],
    "type" : "googleapis.RootResponse",
    "service" : "googleapis",
    "operation" : "invoke",
    "operationId" : "googleapis_RestServiceVirtualController-invoke",
    "operationType" : "get",
    "serviceType" : "RestService",
    "dataSet" : [ ],
    "isList" : false,
    "maxResults" : 20,
    "designMaxResults" : 10,
    "startUpdate" : true,
    "autoUpdate" : true,
    "inFlightBehavior" : "executeLast",
    "transformationRequired" : false,
    "saveInPhonegap" : false,
    "controller" : "RestServiceVirtual"
  },
  "sv_getAvailableDevices" : {
    "_id" : "wm-sv_getAvailableDevices-wm.ServiceVariable-1476797747620",
    "name" : "sv_getAvailableDevices",
    "owner" : "Page",
    "category" : "wm.ServiceVariable",
    "dataBinding" : [ ],
    "type" : "in.aayush.locationsender.locationservice.model.Device",
    "service" : "LocationService",
    "operation" : "getAvailableDeviceIds",
    "operationId" : "LocationController_getAvailableDeviceIds",
    "operationType" : "get",
    "serviceType" : "JavaService",
    "dataSet" : [ ],
    "isList" : true,
    "maxResults" : 20,
    "designMaxResults" : 10,
    "startUpdate" : true,
    "autoUpdate" : true,
    "inFlightBehavior" : "executeLast",
    "transformationRequired" : false,
    "saveInPhonegap" : false,
    "controller" : "Location"
  },
  "sv_getLocationForDevice" : {
    "_id" : "wm-sv_getLocationForDevice-wm.ServiceVariable-1476797104432",
    "name" : "sv_getLocationForDevice",
    "owner" : "Page",
    "category" : "wm.ServiceVariable",
    "dataBinding" : [ {
      "target" : "deviceId",
      "value" : "bind:Widgets.select1.datavalue",
      "type" : "string"
    } ],
    "type" : "in.aayush.locationsender.locationservice.model.LocationData",
    "service" : "LocationService",
    "operation" : "getLocationFromCache",
    "operationId" : "LocationController_getLocationFromCache",
    "operationType" : "get",
    "serviceType" : "JavaService",
    "dataSet" : [ ],
    "isList" : false,
    "maxResults" : 20,
    "designMaxResults" : 10,
    "onSuccess" : "googlemaps2.refresh;Variables.sv_getAddressForLatLng.invoke()",
    "startUpdate" : true,
    "autoUpdate" : true,
    "inFlightBehavior" : "executeLast",
    "transformationRequired" : false,
    "saveInPhonegap" : false,
    "controller" : "Location"
  },
  "tm_getLocationForDevice" : {
    "_id" : "wm-tm_getLocationForDevice-wm.TimerVariable-1476799267424",
    "name" : "tm_getLocationForDevice",
    "owner" : "Page",
    "category" : "wm.TimerVariable",
    "autoStart" : true,
    "repeating" : true,
    "delay" : 10000,
    "onTimerFire" : "Variables.sv_getLocationForDevice.invoke()"
  }
}